<svg width="122" height="43" viewBox="0 0 122 43" fill="none" xmlns="http://www.w3.org/2000/svg">
<g id="logo-trimegah 1" clip-path="url(#clip0_1440_259)">
<g id="Layer_1-2">
<g id="Group">
<g id="Group_2">
<path id="Vector" d="M102.253 9.65275L109.188 11.9742L111.582 8.06683L101.552 8.90566C101.568 9.05855 101.679 9.46102 102.253 9.65358V9.65275Z" fill="#C8362A"/>
<path id="Vector_2" d="M115.963 0.188454C115.89 0.100026 115.677 -0.092532 115.275 0.0529197C115.182 0.0868034 115.082 0.136389 114.971 0.204983L102.075 8.08334C101.558 8.39904 101.539 8.83044 101.552 8.90482L111.583 8.06599L115.875 1.10331C115.965 0.959514 116.236 0.519853 115.963 0.187628V0.188454Z" fill="url(#paint0_linear_1440_259)"/>
<path id="Vector_3" d="M105.377 18.1823L109.189 11.9733L113.55 13.4369L105.324 19.2029C105.238 19.0757 105.062 18.6955 105.378 18.1823H105.377Z" fill="#C8362A"/>
<path id="Vector_4" d="M122 16.6725C122.001 16.7873 121.962 17.0708 121.56 17.2162C121.467 17.2501 121.358 17.2757 121.228 17.2948L106.254 19.4988C105.655 19.5873 105.361 19.2683 105.323 19.2038L113.549 13.4378L121.34 16.0287C121.502 16.0816 121.993 16.2452 122 16.6733V16.6725Z" fill="url(#paint1_linear_1440_259)"/>
<path id="Vector_5" d="M109.188 11.9733L113.549 13.437C113.549 13.437 118.85 9.7205 119.77 9.07588C120.689 8.43209 121 8.15854 120.852 7.75359C120.704 7.34864 120.288 7.3379 119.168 7.43211C118.047 7.52632 111.583 8.06598 111.583 8.06598L109.188 11.9733" fill="url(#paint2_linear_1440_259)"/>
</g>
<g id="Group_3">
<path id="Vector_6" d="M9.43474 24.7962C9.43474 24.431 9.23852 24.2607 8.89431 24.2607H7.91406V21.6277H10.7584C11.8625 21.6277 12.427 22.0905 12.427 23.1392V23.8715C12.427 24.3343 12.3772 24.6516 12.3772 24.6516H12.427C12.9916 22.8715 14.4873 21.4575 16.3988 21.4575C16.669 21.4575 16.9633 21.5062 16.9633 21.5062V24.5533C16.9633 24.5533 16.6449 24.5045 16.2034 24.5045C14.8789 24.5045 13.3582 25.2599 12.7945 27.1127C12.6224 27.7218 12.5243 28.4044 12.5243 29.1358V34.0605H9.43474V24.7971V24.7962Z" fill="#1B4072"/>
<path id="Vector_7" d="M18.7842 21.6269H21.8679L21.8746 30.9143C21.8746 31.2548 22.0708 31.4515 22.4133 31.4515H23.3944V34.0597H20.4271C19.2747 34.0597 18.7842 33.5721 18.7842 32.4019V21.6277V21.6269Z" fill="#1B4072"/>
<path id="Vector_8" d="M25.756 24.7963C25.756 24.431 25.5598 24.2607 25.2164 24.2607H24.2354V21.6277H27.1054C28.2096 21.6277 28.7483 22.1393 28.7483 23.017V23.3831C28.7483 23.6517 28.7234 23.9194 28.7234 23.9194H28.7716C29.3603 22.7004 30.856 21.336 32.8182 21.336C34.7803 21.336 35.9327 22.2137 36.4723 23.8946H36.5213C37.184 22.5542 38.8028 21.336 40.789 21.336C43.3889 21.336 44.8846 22.7988 44.8846 26.064V34.0126L41.7701 34.0027V26.6491C41.7701 25.2359 41.4999 24.1624 40.0524 24.1624C38.5076 24.1624 37.4043 25.4541 37.0609 27.0144C36.9138 27.502 36.8639 28.0136 36.8639 28.5987V34.0597H33.7502V26.6491C33.7502 25.3078 33.554 24.1624 32.0574 24.1624C30.4877 24.1624 29.4334 25.4541 29.041 27.0392C28.9188 27.5268 28.8448 28.0383 28.8448 28.5995V34.0605H25.7544V24.7971L25.756 24.7963Z" fill="#1B4072"/>
<path id="Vector_9" d="M58.4412 27.2334C58.4412 23.9425 56.4799 21.3351 52.8981 21.3351C49.3163 21.3351 46.5469 24.0161 46.5469 27.8433C46.5469 31.3788 49.1218 34.3523 53.2664 34.3523C56.381 34.3523 58.2941 32.4746 58.2941 32.4746L56.9937 30.33C56.9937 30.33 55.498 31.7201 53.4868 31.7201C51.5986 31.7201 49.9798 30.573 49.7346 28.3788H58.3681C58.3681 28.3788 58.4412 27.5995 58.4412 27.2334ZM49.8335 26.2342C50.1769 24.6739 51.3051 23.7235 52.899 23.7235C54.1744 23.7235 55.2045 24.7475 55.2536 26.2342H49.8335Z" fill="#1B4072"/>
<path id="Vector_10" d="M70.6882 21.6269C69.7063 21.6269 69.3155 22.212 69.3155 22.7723V23.0889H69.2657C69.2657 23.0889 68.3095 21.3344 65.4162 21.3344C61.8119 21.3344 59.873 24.1128 59.873 27.526C59.873 30.9391 61.9084 33.8151 65.4893 33.8151C67.1572 33.8151 68.2364 33.254 68.9722 32.206H69.0196C69.0146 32.2077 68.9963 32.2292 68.9963 32.4829V33.068C68.9963 35.3109 67.3525 36.1151 65.4644 36.1151C63.5762 36.1151 62.0065 35.2861 62.0065 35.2861L61.0487 37.7241C62.2509 38.3588 63.9188 38.7968 65.4885 38.7968C68.751 38.7968 72.0859 37.1878 72.0859 32.9217V24.7467C72.0859 24.4302 72.307 24.2599 72.6263 24.2599H73.5824V21.6269H70.6882ZM66.1511 31.2069C64.1408 31.2069 63.0366 29.5987 63.0366 27.4293C63.0366 25.2599 64.0668 23.9674 65.9549 23.9674C67.646 23.9674 69.0694 24.7235 69.0694 27.5508C69.0694 30.378 67.6469 31.2077 66.1511 31.2077V31.2069Z" fill="#1B4072"/>
<path id="Vector_11" d="M85.6226 31.4515C85.2793 31.4515 85.0839 31.2556 85.0839 30.9143V26.2822C85.0839 23.5037 83.8567 21.5508 79.6871 21.5508C78.3876 21.5508 75.5582 21.6153 75.5582 21.6153L75.5558 24.2351C75.5558 24.2351 79.0993 24.1979 79.6638 24.1979C81.2585 24.1979 81.9685 24.3805 81.9685 26.1598V26.2574H81.5769C79.5416 26.2574 74.1465 26.5747 74.1465 30.4755C74.1465 32.9622 76.1818 34.3514 78.4134 34.3514C81.2344 34.3514 82.1905 32.1564 82.1905 32.1564H82.2404C82.2404 32.1564 82.2155 32.3763 82.2155 32.6944C82.2155 33.4258 82.6561 34.0589 83.8093 34.0589H86.6054V31.4507H85.6243L85.6226 31.4515ZM82.0176 28.6722C82.0176 30.1829 80.8403 31.9391 79.1733 31.9391C77.8979 31.9391 77.2851 31.1581 77.2851 30.33C77.2851 28.5986 79.8592 28.3788 81.478 28.3788H82.0168V28.673L82.0176 28.6722Z" fill="#1B4072"/>
<path id="Vector_12" d="M88.2587 19.9203C88.2587 19.555 88.0608 19.384 87.7182 19.384H86.7363V16.7518H89.7045C90.8569 16.7518 91.3715 17.2633 91.3715 18.3848V22.7484C91.3715 23.3583 91.3233 23.7971 91.3233 23.7971H91.3715C91.9602 22.6029 93.5058 21.3352 95.6633 21.3352C98.4594 21.3352 100.029 22.7731 100.029 26.0632V30.9143C100.029 31.2548 100.225 31.4515 100.568 31.4515H101.55V34.0597H98.5825C97.4293 34.0597 96.9388 33.5721 96.9388 32.4019V26.697C96.9388 25.1855 96.5222 24.1624 94.9525 24.1624C93.3827 24.1624 92.0342 25.2359 91.5677 26.7458C91.4206 27.2334 91.3715 27.7706 91.3715 28.3557V34.0597H88.2578V19.9203H88.2587Z" fill="#1B4072"/>
<path id="Vector_13" d="M0 17.7733H3.10704V21.6409H5.94386V24.2773H3.10704V29.1036C3.10704 31.1457 4.72166 31.4375 5.57637 31.4375C5.91975 31.4375 6.14007 31.3895 6.14007 31.3895V34.0878C6.14007 34.0878 5.74847 34.1614 5.1856 34.1614C3.44958 34.1614 0 33.6506 0 29.4929L0 17.7733Z" fill="#1B4072"/>
</g>
<g id="Group_4">
<path id="Vector_14" d="M1.39447 43C0.822446 43 0.433339 42.8124 0.168945 42.6438L0.44581 42.1504C0.652835 42.2942 0.979585 42.4562 1.36952 42.4562C1.70874 42.4562 2.10533 42.3058 2.10533 41.9314C2.10533 41.3 1.10596 41.1752 0.603781 40.619C0.43417 40.4314 0.321096 40.2009 0.321096 39.8819C0.321096 39.2827 0.785863 38.7827 1.62145 38.7827C2.06127 38.7827 2.38885 38.8951 2.6017 39.0075L2.59504 39.6199C2.31236 39.4513 1.99226 39.3323 1.65221 39.3323C1.29386 39.3323 0.998708 39.4819 0.998708 39.8075C0.998708 40.619 2.80872 40.5943 2.80872 41.8562C2.80872 42.5496 2.19347 42.9992 1.39447 42.9992V43Z" fill="#1B4072"/>
<path id="Vector_15" d="M4.41797 42.9372V38.8207H6.63039L6.42919 39.3827H5.07812V40.5513H6.42253V41.1133H5.07812V42.3752H6.63621V42.9372H4.41797Z" fill="#1B4072"/>
<path id="Vector_16" d="M10.0037 43C8.71583 43 7.95508 42.1008 7.95508 40.9265C7.95508 39.7521 8.82225 38.7844 10.1417 38.7844C10.6007 38.7844 10.9773 38.8901 11.2101 39.0158L11.1976 39.6405C10.8709 39.4405 10.5508 39.3406 10.1484 39.3406C9.19972 39.3406 8.67177 40.0397 8.67177 40.8769C8.67177 41.7636 9.21219 42.4198 10.1043 42.4198C10.4685 42.4198 10.8077 42.314 11.1037 42.1512L11.2924 42.638C10.8592 42.8942 10.4319 43 10.0045 43H10.0037Z" fill="#1B4072"/>
<path id="Vector_17" d="M15.6873 42.5562C15.4105 42.8372 14.9964 43 14.4053 43C13.8141 43 13.4375 42.8562 13.1798 42.6066C12.8721 42.3132 12.7773 41.8694 12.7773 41.4388V38.8215H13.4308V41.4074C13.4308 41.6942 13.5123 41.976 13.6944 42.1694C13.8515 42.338 14.0902 42.438 14.4169 42.438C14.7811 42.438 15.033 42.338 15.1901 42.1694C15.3598 41.9942 15.4229 41.7388 15.4229 41.4446V38.8215H16.0823V41.4512C16.0823 41.8884 15.9567 42.2818 15.6865 42.557L15.6873 42.5562Z" fill="#1B4072"/>
<path id="Vector_18" d="M20.1136 42.9372C19.4668 41.8752 19.1459 41.3133 18.9829 41.2695H18.5996V42.9372H17.9395V38.8207H18.9696C20.0064 38.8207 20.403 39.3397 20.403 39.9703C20.403 40.5323 20.0321 40.8943 19.6239 41.0571V41.0628C19.7935 41.1504 20.2334 41.881 20.8802 42.9364H20.1136V42.9372ZM18.9762 39.3893H18.5996V40.7571H18.9895C19.4169 40.7571 19.7312 40.4323 19.7312 40.0389C19.7312 39.6827 19.5117 39.3893 18.9771 39.3893H18.9762Z" fill="#1B4072"/>
<path id="Vector_19" d="M22.3047 42.9372V38.8207H22.964V42.9372H22.3047Z" fill="#1B4072"/>
<path id="Vector_20" d="M27.4045 39.3827H26.2671V42.9364H25.6011V39.3827H24.4014V38.8207H27.5874L27.4053 39.3827H27.4045Z" fill="#1B4072"/>
<path id="Vector_21" d="M28.9902 42.9372V38.8207H29.6496V42.9372H28.9902Z" fill="#1B4072"/>
<path id="Vector_22" d="M31.4941 42.9372V38.8207H33.7066L33.5054 39.3827H32.1543V40.5513H33.4987V41.1133H32.1543V42.3752H33.7124V42.9372H31.4941Z" fill="#1B4072"/>
<path id="Vector_23" d="M36.3622 43C35.7902 43 35.4011 42.8124 35.1367 42.6438L35.4136 42.1504C35.6206 42.2942 35.9474 42.4562 36.3373 42.4562C36.6765 42.4562 37.0723 42.3058 37.0723 41.9314C37.0723 41.3 36.0737 41.1752 35.5707 40.619C35.4011 40.4314 35.288 40.2009 35.288 39.8819C35.288 39.2827 35.7528 38.7827 36.5884 38.7827C37.0282 38.7827 37.355 38.8951 37.5686 39.0075L37.562 39.6199C37.2793 39.4513 36.9592 39.3323 36.6192 39.3323C36.2608 39.3323 35.9656 39.4819 35.9656 39.8075C35.9656 40.619 37.7757 40.5943 37.7757 41.8562C37.7757 42.5496 37.1604 42.9992 36.3614 42.9992L36.3622 43Z" fill="#1B4072"/>
</g>
</g>
</g>
</g>
<defs>
<linearGradient id="paint0_linear_1440_259" x1="100.961" y1="8.57033" x2="116.238" y2="2.97619" gradientUnits="userSpaceOnUse">
<stop stop-color="#F36F27"/>
<stop offset="0.98" stop-color="#FFD449"/>
</linearGradient>
<linearGradient id="paint1_linear_1440_259" x1="56.3382" y1="37.4745" x2="120.296" y2="14.0552" gradientUnits="userSpaceOnUse">
<stop stop-color="#F36F27"/>
<stop offset="0.98" stop-color="#FFD449"/>
</linearGradient>
<linearGradient id="paint2_linear_1440_259" x1="103.024" y1="14.2037" x2="118.301" y2="8.60957" gradientUnits="userSpaceOnUse">
<stop stop-color="#F36F27"/>
<stop offset="0.98" stop-color="#FFD449"/>
</linearGradient>
<clipPath id="clip0_1440_259">
<rect width="122" height="43" fill="white"/>
</clipPath>
</defs>
</svg>
